# Raw qPCR Data

Data was filtered for reactions with “Call” == “Pass”. Culture condition
was added to each sample to facilitate downstream analysis.

## Data Points without Corresponding Culture Condition

These are samples that are not among the original sample set that were
used for RNA-seq. Note the inclusion of the blank samples for the target
Srp68. This indicates that the Srp68 primers amplify without template.
Possible primer-dimer amplification. The Srp68 reactions should be
excluded.

    ## # A tibble: 41 × 15
    ##    ID      sample    culture Sample_Type rConc Target Test_Type Ct_Value Quality
    ##    <chr>   <chr>     <chr>   <chr>       <dbl> <chr>  <chr>        <dbl>   <dbl>
    ##  1 S96-A01 No Sample <NA>    Blank           1 Adcy1  Test          27.8   1    
    ##  2 S96-A31 No Sample <NA>    Blank           1 Srp68  Test          18.1   0.767
    ##  3 S95-A31 No Sample <NA>    Blank           1 Srp68  Test          18.1   0.682
    ##  4 S04-A31 No Sample <NA>    Blank           1 Srp68  Test          18.5   0.713
    ##  5 S92-A31 No Sample <NA>    Blank           1 Srp68  Test          18.0   0.839
    ##  6 S91-A31 No Sample <NA>    Blank           1 Srp68  Test          17.8   0.819
    ##  7 S88-A31 No Sample <NA>    Blank           1 Srp68  Test          18.7   0.748
    ##  8 S87-A31 No Sample <NA>    Blank           1 Srp68  Test          18.2   0.699
    ##  9 S08-A31 No Sample <NA>    Blank           1 Srp68  Test          18.4   0.711
    ## 10 S84-A31 No Sample <NA>    Blank           1 Srp68  Test          18.6   0.727
    ## # ℹ 31 more rows
    ## # ℹ 6 more variables: Call <chr>, Threshold <dbl>, `In Range` <dbl>,
    ## #   `Out Range` <dbl>, `Peak Ratio` <dbl>, Comments <lgl>

## Summary of qPCR Data

This table contains the mean values for each culture condition and
target. The key value is ddCt with is equivalent to log2 fold change. It
is ddCt that will be compared to the RNA-seq estimated log2 fold
changes.

    ## # A tibble: 1,216 × 9
    ## # Groups:   sample [21]
    ##    sample Target mean_Ct     sd culture calibrator_Ct delta_Ct mean_con_dCt
    ##    <chr>  <chr>    <dbl>  <dbl> <chr>           <dbl>    <dbl>        <dbl>
    ##  1 AN_G1  Adcy1    13.7  0.0582 AN               11.3   -2.45        -1.56 
    ##  2 AN_G1  Aldoc     6.75 0.0438 AN               11.3    4.55         3.41 
    ##  3 AN_G1  Appl2    10.8  0.134  AN               11.3    0.447       -0.125
    ##  4 AN_G1  Aqp4      7.06 0.0977 AN               11.3    4.24         3.30 
    ##  5 AN_G1  Atp1b1    7.04 0.0680 AN               11.3    4.26         3.82 
    ##  6 AN_G1  Ccnd1     8.47 0.0286 AN               11.3    2.83         3.99 
    ##  7 AN_G1  Ccnd2     8.29 0.0745 AN               11.3    3.01         3.57 
    ##  8 AN_G1  Cdk1     11.9  0.117  AN               11.3   -0.570        0.855
    ##  9 AN_G1  Clcn5    14.4  0.164  AN               11.3   -3.12        -2.30 
    ## 10 AN_G1  Cldn10   12.9  0.138  AN               11.3   -1.64        -3.36 
    ## # ℹ 1,206 more rows
    ## # ℹ 1 more variable: ddCt <dbl>
…
## Correlation Data

    ## # A tibble: 174 × 4
    ## # Groups:   culture [3]
    ##    culture Target mean_ddCt seq_lfc
    ##    <chr>   <chr>      <dbl>   <dbl>
    ##  1 AE      Adcy1     -1.52   -0.421
    ##  2 AE      Aldoc      1.88    0.286
    ##  3 AE      Appl2      0.293   0.529
    ##  4 AE      Aqp4       1.43    0.185
    ##  5 AE      Atp1b1    -0.208  -0.350
    ##  6 AE      Ccnd1     -1.31   -1.66 
    ##  7 AE      Ccnd2     -0.154  -0.435
    ##  8 AE      Cdk1      -0.279  -0.264
    ##  9 AE      Clcn5      0.476   0.268
    ## 10 AE      Cldn10     2.10    0.454
    ## # ℹ 164 more rows

# Correlation of RT-qPCR to uncorrected LFC from RNA-seq data

    ## # A tibble: 174 × 3
    ##    Target  culture seq_lfc
    ##    <chr>   <chr>     <dbl>
    ##  1 Slc7a11 AN       0.862 
    ##  2 Slc7a11 AE       5.68  
    ##  3 Slc7a11 AEN      6.86  
    ##  4 Ephb2   AN      -0.365 
    ##  5 Ephb2   AE      -2.44  
    ##  6 Ephb2   AEN     -3.28  
    ##  7 Sema3c  AN      -0.0662
    ##  8 Sema3c  AE      -3.12  
    ##  9 Sema3c  AEN     -3.28  
    ## 10 Slc1a2  AN       1.05  
    ## # ℹ 164 more rows
…
